<svg width="48" height="48" viewBox="0 0 48 48" fill="none" xmlns="http://www.w3.org/2000/svg">
<g clip-path="url(#clip0_60_2765)">
<path d="M12.2342 47.0402V33.317H15.6662L8.31258 26.4482L0.958984 33.317H4.39098V47.0402H8.35098" stroke="#7759C2" stroke-width="1.27982" stroke-linecap="round" stroke-linejoin="round"/>
<path d="M27.9197 43.1569V20.5681H31.3517L23.9981 13.7041L16.6445 20.5681H20.0765V47.0401H27.9197" stroke="#7759C2" stroke-width="1.27982" stroke-linecap="round" stroke-linejoin="round"/>
<path d="M43.6072 47.04V7.82396H47.0392L39.6856 0.959961L32.332 7.82396H35.764V47.04H39.724" stroke="#7759C2" stroke-width="1.27982" stroke-linecap="round" stroke-linejoin="round"/>
</g>
<defs>
<clipPath id="clip0_60_2765">
<rect width="48" height="48" fill="white"/>
</clipPath>
</defs>
</svg>
