<svg width="91" height="24" viewBox="0 0 91 24" fill="none" xmlns="http://www.w3.org/2000/svg">
<g clip-path="url(#clip0_126_12132)">
<path d="M42.8247 7.16657C42.3451 7.15159 41.9554 7.52627 41.9404 7.99088L41.9404 12.3072C39.8872 10.6586 36.8747 10.9883 35.2261 13.0416C34.5517 13.8959 34.177 14.945 34.177 16.0391C34.132 18.6769 36.2302 20.85 38.868 20.895C41.5058 20.9399 43.679 18.8417 43.7239 16.2039L43.7239 8.05083C43.7239 7.81103 43.634 7.58622 43.4691 7.42136C43.2893 7.2565 43.0645 7.16657 42.8247 7.16657ZM41.7006 17.1931C41.4009 17.9125 40.8314 18.482 40.112 18.7968C39.3626 19.1115 38.5233 19.1115 37.7739 18.7968C37.0545 18.497 36.5 17.9125 36.2003 17.2081C35.8855 16.4737 35.8855 15.6344 36.2003 14.8851C36.5 14.1657 37.0695 13.5961 37.7739 13.2964C38.5233 12.9817 39.3626 12.9817 40.112 13.2964C40.8314 13.6111 41.4009 14.1807 41.7006 14.9C42.0154 15.6194 42.0154 16.4587 41.7006 17.1931M52.7913 12.6669C50.9328 10.8085 47.9054 10.8085 46.047 12.6669C45.1477 13.5662 44.6531 14.7801 44.6531 16.0391C44.6082 18.6769 46.7064 20.85 49.3442 20.895C51.9819 20.9399 54.1551 18.8417 54.2001 16.2039L54.2001 16.0391C54.2001 15.4096 54.0802 14.7951 53.8404 14.2106C53.6006 13.6261 53.2409 13.1016 52.7913 12.6669M52.1768 17.1781C52.0269 17.5378 51.8021 17.8526 51.5323 18.1223C51.2626 18.3921 50.9328 18.6169 50.5881 18.7668C49.8388 19.0815 48.9995 19.0815 48.2501 18.7668C47.5307 18.467 46.9612 17.8825 46.6614 17.1781C46.3467 16.4437 46.3467 15.6044 46.6614 14.8551C46.9612 14.1357 47.5307 13.5812 48.2501 13.2664C48.9995 12.9517 49.8388 12.9517 50.5881 13.2664C50.9478 13.4163 51.2626 13.6411 51.5323 13.9109C51.8021 14.1807 52.0269 14.5104 52.1768 14.8551C52.4915 15.6194 52.4915 16.4587 52.1768 17.1781ZM72.5296 12.1424C72.5296 12.0225 72.4996 11.9026 72.4547 11.7977C72.4097 11.6928 72.3348 11.6028 72.2598 11.5129C72.1849 11.438 72.08 11.363 71.9751 11.3181C71.8702 11.2731 71.7503 11.2431 71.6304 11.2431C71.4655 11.2431 71.3006 11.2881 71.1508 11.378L66.0551 14.6902L66.0551 8.06582C66.0551 7.82602 65.9651 7.60121 65.8003 7.43635C65.6354 7.27148 65.4106 7.16657 65.1708 7.16657C64.6762 7.16657 64.2866 7.55625 64.2716 8.05083L64.2716 19.9058C64.2716 20.1456 64.3615 20.3704 64.5264 20.5353C64.6912 20.7151 64.916 20.8051 65.1558 20.8051C65.3956 20.8051 65.6204 20.7151 65.7853 20.5353C65.9502 20.3704 66.0551 20.1456 66.0401 19.9058L66.0401 16.8334L67.0742 16.159L71.0159 20.5803C71.1807 20.7301 71.3906 20.8201 71.6154 20.8051C71.7353 20.8051 71.8552 20.7901 71.9601 20.7301C72.065 20.6852 72.1549 20.6252 72.2448 20.5353C72.3198 20.4454 72.3947 20.3554 72.4397 20.2505C72.4846 20.1456 72.5146 20.0257 72.5146 19.9058C72.5146 19.681 72.4247 19.4562 72.2748 19.2913L68.6179 15.1698L72.1849 12.8468C72.4247 12.6969 72.5446 12.4271 72.5296 12.1424ZM57.7371 13.9109C58.0069 13.6411 58.3366 13.4163 58.6963 13.2664C59.071 13.1166 59.4606 13.0266 59.8653 13.0266C60.225 13.0266 60.5697 13.0866 60.8994 13.2065C61.2291 13.3414 61.5439 13.5212 61.8137 13.761C61.9785 13.8959 62.1883 13.9558 62.3982 13.9558C62.638 13.9708 62.8778 13.8809 63.0426 13.7011C63.2075 13.5362 63.2974 13.2964 63.2974 13.0566C63.2974 12.8018 63.1925 12.547 62.9827 12.3822C62.1284 11.6178 61.0193 11.1982 59.8653 11.2281C57.2275 11.2281 55.0843 13.3713 55.0843 16.0091C55.0843 18.6469 57.2125 20.7751 59.8353 20.7901C60.9893 20.7901 62.0984 20.3854 62.9677 19.6361C63.1475 19.4712 63.2524 19.2314 63.2524 18.9766C63.2674 18.497 62.8927 18.1073 62.4281 18.0924L62.3682 18.0924C62.1584 18.0924 61.9635 18.1523 61.7987 18.2722C61.5289 18.512 61.2291 18.6918 60.8994 18.8267C60.5697 18.9466 60.21 19.0066 59.8653 19.0066C59.4606 19.0066 59.071 18.9316 58.6963 18.7668C58.3366 18.6169 58.0219 18.3921 57.7371 18.1223C56.5681 16.9533 56.5681 15.0649 57.7221 13.8959C57.7371 13.9259 57.7371 13.9259 57.7371 13.9109M90.2297 11.8576C90.0498 11.6928 89.855 11.5729 89.6302 11.4979C89.3754 11.408 89.1056 11.348 88.8358 11.3181C88.5661 11.2881 88.2963 11.2731 88.0265 11.2731C87.487 11.2731 86.9325 11.363 86.4229 11.5579C85.9133 11.7377 85.4487 12.0075 85.0291 12.3372L85.0291 12.1574C85.0141 11.6628 84.5944 11.2881 84.0998 11.3031C83.8757 11.3106 83.6627 11.403 83.5041 11.5616C83.3454 11.7202 83.253 11.9332 83.2456 12.1574L83.2456 19.9358C83.2606 20.4304 83.6802 20.8051 84.1748 20.7901C84.399 20.7826 84.6119 20.6902 84.7706 20.5316C84.9292 20.373 85.0216 20.16 85.0291 19.9358L85.0291 16.0541C85.0291 15.6494 85.104 15.2597 85.2689 14.8851C85.4187 14.5254 85.6286 14.2106 85.9133 13.9409C86.1831 13.6711 86.5128 13.4463 86.8575 13.2964C87.2322 13.1465 87.6219 13.0566 88.0265 13.0566C88.4312 13.0566 88.8209 13.1315 89.1955 13.2664C89.3154 13.3264 89.4353 13.3564 89.5702 13.3564C89.6901 13.3564 89.81 13.3414 89.9149 13.2814C90.0198 13.2365 90.1098 13.1765 90.1997 13.0866C90.2746 13.0116 90.3496 12.9067 90.3945 12.8018C90.4395 12.6969 90.4695 12.577 90.4695 12.4571C90.4845 12.2323 90.3945 12.0225 90.2297 11.8576M81.9566 14.2106C81.1923 12.4421 79.4538 11.2881 77.5354 11.2731C74.8976 11.2731 72.7694 13.4013 72.7544 16.0391C72.7544 18.6769 74.8976 20.8201 77.5354 20.8201C78.6744 20.8201 79.7835 20.4154 80.6528 19.666L80.6827 19.6361C80.7577 19.5761 80.8326 19.5012 80.8776 19.4112C81.1623 18.9916 81.0574 18.4371 80.6528 18.1523C80.308 17.9275 79.8584 17.9725 79.5587 18.2572C79.5287 18.2872 79.4388 18.3621 79.4388 18.3771L79.4238 18.3921C79.169 18.6019 78.8842 18.7818 78.5695 18.8867C78.2398 19.0066 77.8951 19.0665 77.5354 19.0515C77.2057 19.0515 76.8909 19.0066 76.5762 18.9017C76.2764 18.7968 75.9917 18.6619 75.7369 18.467C75.4821 18.2872 75.2573 18.0624 75.0775 17.8076C74.8826 17.5528 74.7477 17.2531 74.6578 16.9533L81.4021 16.9533C81.6419 16.9533 81.8667 16.8634 82.0316 16.6985C82.2114 16.5337 82.3014 16.3089 82.2864 16.0691C82.3014 15.4246 82.1815 14.7951 81.9566 14.2106M74.6578 15.1698C74.7477 14.8551 74.8826 14.5703 75.0775 14.3155C75.2573 14.0608 75.4821 13.8359 75.7369 13.6561C75.9917 13.4762 76.2764 13.3264 76.5762 13.2215C76.8759 13.1166 77.2057 13.0716 77.5204 13.0716C77.8351 13.0716 78.1648 13.1166 78.4646 13.2215C79.0641 13.4163 79.5886 13.806 79.9633 14.3155C80.1582 14.5703 80.2931 14.8701 80.398 15.1698L74.6578 15.1698ZM87.1872 19.5162C86.8425 19.5162 86.5728 19.8009 86.5728 20.1456C86.5728 20.4903 86.8575 20.7601 87.2022 20.7601C87.5469 20.7601 87.8167 20.4753 87.8167 20.1456C87.8167 19.7859 87.5319 19.5162 87.1872 19.5162ZM87.1872 20.6252C86.9175 20.6402 86.6926 20.4304 86.6777 20.1606C86.6627 19.8908 86.8725 19.666 87.1423 19.651C87.412 19.636 87.6369 19.8459 87.6518 20.1156L87.6518 20.1456C87.6668 20.4004 87.457 20.6252 87.2022 20.6252L87.1872 20.6252Z" fill="#0091E2"/>
<path d="M87.3372 20.1457C87.4121 20.1307 87.457 20.0707 87.457 19.9958C87.457 19.9358 87.4421 19.8909 87.3971 19.8609C87.3372 19.8309 87.2622 19.8159 87.1873 19.8159C87.1123 19.8159 87.0224 19.8159 86.9475 19.8309L86.9475 20.4454L87.0824 20.4454L87.0824 20.2056L87.1423 20.2056C87.2173 20.2056 87.2622 20.2356 87.2772 20.2955C87.2922 20.3405 87.3072 20.4004 87.3222 20.4454L87.472 20.4454C87.4421 20.4004 87.4271 20.3405 87.4271 20.2955C87.4421 20.2356 87.3971 20.1756 87.3372 20.1457M87.1573 20.1007L87.0824 20.1007L87.0824 19.9208L87.1573 19.9208C87.2472 19.9208 87.2922 19.9658 87.2922 20.0108C87.3072 20.0707 87.2322 20.1157 87.1573 20.1007M32.5434 9.1749C32.4535 9.09997 31.6442 8.48549 29.9056 8.48549C29.456 8.48549 28.9914 8.53045 28.5418 8.60539C28.2121 6.31232 26.3087 5.20326 26.2337 5.14331L25.7691 4.87354L25.4694 5.30817C25.0947 5.89268 24.8099 6.55212 24.6451 7.22655C24.3303 8.53045 24.5252 9.75941 25.1846 10.8085C24.3903 11.2581 23.1014 11.3631 22.8316 11.378L1.54957 11.378C0.995033 11.378 0.545413 11.8277 0.545412 12.3822C0.515438 14.2406 0.830172 16.0991 1.47463 17.8526C2.20901 19.771 3.30308 21.1948 4.7119 22.064C6.30055 23.0382 8.89337 23.5927 11.8159 23.5927C13.1348 23.5927 14.4537 23.4728 15.7576 23.233C17.571 22.9033 19.3096 22.2738 20.9132 21.3596C22.2321 20.5953 23.4161 19.6211 24.4203 18.482C26.1138 16.5787 27.118 14.4505 27.8524 12.562L28.1521 12.562C29.9956 12.562 31.1346 11.8277 31.7641 11.1982C32.1837 10.8085 32.4984 10.3289 32.7233 9.78939L32.8581 9.39971L32.5434 9.1749Z" fill="#0091E2"/>
<path d="M3.52798 10.7635L6.37557 10.7635C6.51046 10.7635 6.63036 10.6586 6.63036 10.5088L6.63036 7.96091C6.63036 7.82602 6.52545 7.70613 6.37557 7.70613L3.52798 7.70613C3.39309 7.70613 3.27319 7.81104 3.27319 7.96091L3.27319 10.5088C3.28818 10.6586 3.39309 10.7635 3.52798 10.7635ZM7.45466 10.7635L10.3023 10.7635C10.4371 10.7635 10.557 10.6586 10.557 10.5088L10.557 7.96091C10.557 7.82602 10.4521 7.70613 10.3023 7.70613L7.45466 7.70613C7.31978 7.70613 7.19988 7.81104 7.19988 7.96091L7.19988 10.5088C7.21487 10.6586 7.31978 10.7635 7.45466 10.7635ZM11.4563 10.7635L14.3039 10.7635C14.4388 10.7635 14.5587 10.6586 14.5587 10.5088L14.5587 7.96091C14.5587 7.82602 14.4538 7.70613 14.3039 7.70613L11.4563 7.70613C11.3214 7.70613 11.2015 7.81104 11.2015 7.96091L11.2015 10.5088C11.2015 10.6586 11.3064 10.7635 11.4563 10.7635ZM15.398 10.7635L18.2456 10.7635C18.3804 10.7635 18.5003 10.6586 18.5003 10.5088L18.5003 7.96091C18.5003 7.82603 18.3954 7.70613 18.2456 7.70613L15.398 7.70613C15.2631 7.70613 15.1432 7.81104 15.1432 7.96091L15.1432 10.5088C15.1432 10.6586 15.2631 10.7635 15.398 10.7635ZM7.45466 7.12162L10.3023 7.12162C10.4371 7.12162 10.557 7.00172 10.557 6.86684L10.557 4.31899C10.557 4.1841 10.4521 4.0642 10.3023 4.0642L7.45466 4.0642C7.31978 4.0642 7.19988 4.16911 7.19988 4.31899L7.19988 6.86684C7.21487 7.00172 7.31978 7.12162 7.45466 7.12162ZM11.4563 7.12162L14.3039 7.12162C14.4388 7.12162 14.5587 7.00172 14.5587 6.86684L14.5587 4.31899C14.5587 4.1841 14.4538 4.0642 14.3039 4.0642L11.4563 4.0642C11.3214 4.0642 11.2015 4.16911 11.2015 4.31899L11.2015 6.86684C11.2015 7.00172 11.3064 7.12162 11.4563 7.12162ZM15.398 7.12162L18.2456 7.12162C18.3804 7.12162 18.5003 7.00172 18.5003 6.86684L18.5003 4.31899C18.5003 4.1841 18.3804 4.0642 18.2456 4.0642L15.398 4.0642C15.2631 4.0642 15.1432 4.16911 15.1432 4.31899L15.1432 6.86684C15.1432 7.00172 15.2631 7.12162 15.398 7.12162ZM15.398 3.46471L18.2456 3.46471C18.3804 3.46471 18.5003 3.3598 18.5003 3.20992L18.5003 0.662076C18.5003 0.52719 18.3804 0.407289 18.2456 0.407289L15.398 0.407289C15.2631 0.407289 15.1432 0.512202 15.1432 0.662075L15.1432 3.20992C15.1432 3.34481 15.2631 3.46471 15.398 3.46471ZM19.3696 10.7635L22.2172 10.7635C22.3521 10.7635 22.472 10.6586 22.472 10.5088L22.472 7.96091C22.472 7.82603 22.3671 7.70613 22.2172 7.70613L19.3696 7.70613C19.2347 7.70613 19.1148 7.81104 19.1148 7.96091L19.1148 10.5088C19.1298 10.6586 19.2347 10.7635 19.3696 10.7635Z" fill="#0091E2"/>
</g>
<defs>
<clipPath id="clip0_126_12132">
<rect width="90" height="23.1854" fill="white" transform="translate(90.5 23.5927) rotate(-180)"/>
</clipPath>
</defs>
</svg>
