<svg width="65" height="64" viewBox="0 0 65 64" fill="none" xmlns="http://www.w3.org/2000/svg">
<path d="M60.2125 48.0011C60.6588 47.2281 60.9361 46.3572 60.9361 45.5751V18.4271C60.9361 17.645 60.6591 16.7742 60.2127 16.0012L32.5 32.0012L60.2125 48.0011Z" fill="#00599C"/>
<path d="M34.9627 63.4145L58.4736 49.8406C59.1508 49.4495 59.7664 48.7743 60.2126 48.0011L32.5001 32.0012L4.7876 48.0013C5.23384 48.7743 5.84958 49.4497 6.52666 49.8406L30.0375 63.4145C31.3919 64.1966 33.6084 64.1966 34.9627 63.4145Z" fill="#004482"/>
<path d="M60.2127 16.0009C59.7663 15.2278 59.1506 14.5526 58.4735 14.1615L34.9626 0.587574C33.6083 -0.194515 31.3918 -0.194515 30.0374 0.587574L6.52657 14.1615C5.17204 14.9434 4.06396 16.8629 4.06396 18.4269V45.575C4.06396 46.3571 4.34108 47.228 4.7875 48.001L32.5 32.0011L60.2127 16.0009Z" fill="#659AD2"/>
<path d="M32.4999 50.9587C22.0467 50.9587 13.5425 42.4544 13.5425 32.0012C13.5425 21.548 22.0467 13.0437 32.4999 13.0437C39.245 13.0437 45.5357 16.6735 48.9168 22.5165L40.7125 27.2641C39.0203 24.3394 35.8732 22.5225 32.4999 22.5225C27.2732 22.5225 23.0212 26.7745 23.0212 32.0012C23.0212 37.2277 27.2732 41.48 32.4999 41.48C35.8735 41.48 39.0206 39.663 40.713 36.7378L48.9173 41.4852C45.5362 47.3287 39.2453 50.9587 32.4999 50.9587Z" fill="white"/>
<path d="M49.3508 28.8416H47.2447V30.9479H45.1382V33.0543H47.2447V35.1608H49.3508V33.0543H51.4573V30.9479H49.3508V28.8416ZM57.2497 28.8416H55.1436V30.9479H53.0371V33.0543H55.1436V35.1608H57.2497V33.0543H59.3562V30.9479H57.2497V28.8416Z" fill="white"/>
</svg>
