<svg width="65" height="65" viewBox="0 0 65 65" fill="none" xmlns="http://www.w3.org/2000/svg">
<g clip-path="url(#clip0_117_5192)">
<mask id="mask0_117_5192" style="mask-type:luminance" maskUnits="userSpaceOnUse" x="13" y="13" width="52" height="52">
<path fill-rule="evenodd" clip-rule="evenodd" d="M13.584 64.1246L61.0687 60.9021L64.7257 13.0218L50.2569 42.3484L13.584 64.1246Z" fill="white"/>
</mask>
<g mask="url(#mask0_117_5192)">
<path fill-rule="evenodd" clip-rule="evenodd" d="M13.584 64.1246L61.0687 60.9021L64.7257 13.0218L50.2569 42.3484L13.584 64.1246Z" fill="url(#paint0_linear_117_5192)"/>
</g>
<mask id="mask1_117_5192" style="mask-type:luminance" maskUnits="userSpaceOnUse" x="45" y="32" width="17" height="29">
<path fill-rule="evenodd" clip-rule="evenodd" d="M45.9487 47.3799L61.1469 60.8696L57.0654 32.7003L45.9487 47.3799Z" fill="white"/>
</mask>
<g mask="url(#mask1_117_5192)">
<path fill-rule="evenodd" clip-rule="evenodd" d="M45.9487 47.3799L61.1469 60.8696L57.0654 32.7003L45.9487 47.3799Z" fill="url(#paint1_linear_117_5192)"/>
</g>
<mask id="mask2_117_5192" style="mask-type:luminance" maskUnits="userSpaceOnUse" x="13" y="58" width="49" height="7">
<path fill-rule="evenodd" clip-rule="evenodd" d="M13.7427 64.063L61.2016 60.8696L31.3011 58.5224L13.7427 64.063Z" fill="white"/>
</mask>
<g mask="url(#mask2_117_5192)">
<path fill-rule="evenodd" clip-rule="evenodd" d="M13.7427 64.063L61.2016 60.8696L31.3011 58.5224L13.7427 64.063Z" fill="url(#paint2_linear_117_5192)"/>
</g>
<mask id="mask3_117_5192" style="mask-type:luminance" maskUnits="userSpaceOnUse" x="4" y="39" width="18" height="26">
<path fill-rule="evenodd" clip-rule="evenodd" d="M4.81787 43.1135L13.7851 64.0695L21.2545 39.5992L4.81787 43.1135Z" fill="white"/>
</mask>
<g mask="url(#mask3_117_5192)">
<path fill-rule="evenodd" clip-rule="evenodd" d="M4.81787 43.1135L13.7851 64.0695L21.2545 39.5992L4.81787 43.1135Z" fill="url(#paint3_linear_117_5192)"/>
</g>
<mask id="mask4_117_5192" style="mask-type:luminance" maskUnits="userSpaceOnUse" x="19" y="20" width="27" height="28">
<path fill-rule="evenodd" clip-rule="evenodd" d="M19.4033 38.9768L45.9452 47.461L39.0724 20.5398L19.4033 38.9768Z" fill="white"/>
</mask>
<g mask="url(#mask4_117_5192)">
<path fill-rule="evenodd" clip-rule="evenodd" d="M19.4033 38.9768L45.9452 47.461L39.0724 20.5398L19.4033 38.9768Z" fill="url(#paint4_linear_117_5192)"/>
</g>
<mask id="mask5_117_5192" style="mask-type:luminance" maskUnits="userSpaceOnUse" x="39" y="5" width="25" height="18">
<path fill-rule="evenodd" clip-rule="evenodd" d="M39.3965 22.472L63.1664 20.9191L44.5738 5.73389L39.3965 22.472Z" fill="white"/>
</mask>
<g mask="url(#mask5_117_5192)">
<path fill-rule="evenodd" clip-rule="evenodd" d="M39.3965 22.472L63.1664 20.9191L44.5738 5.73389L39.3965 22.472Z" fill="url(#paint5_linear_117_5192)"/>
</g>
<mask id="mask6_117_5192" style="mask-type:luminance" maskUnits="userSpaceOnUse" x="36" y="0" width="19" height="7">
<path fill-rule="evenodd" clip-rule="evenodd" d="M36.6377 0.238708L54.4717 0.319757L43.5366 6.36279L36.6377 0.238708Z" fill="white"/>
</mask>
<g mask="url(#mask6_117_5192)">
<path fill-rule="evenodd" clip-rule="evenodd" d="M36.6377 0.238708L54.4717 0.319757L43.5366 6.36279L36.6377 0.238708Z" fill="url(#paint6_linear_117_5192)"/>
</g>
<mask id="mask7_117_5192" style="mask-type:luminance" maskUnits="userSpaceOnUse" x="0" y="33" width="6" height="19">
<path fill-rule="evenodd" clip-rule="evenodd" d="M1.3684 33.0148L0.493164 51.322L5.074 42.9675L1.3684 33.0148Z" fill="white"/>
</mask>
<g mask="url(#mask7_117_5192)">
<path fill-rule="evenodd" clip-rule="evenodd" d="M1.3684 33.0148L0.493164 51.322L5.074 42.9675L1.3684 33.0148Z" fill="url(#paint7_linear_117_5192)"/>
</g>
<path fill-rule="evenodd" clip-rule="evenodd" d="M1.12207 32.7003L4.85031 43.2756L21.0502 39.6414L39.5456 22.4526L44.7652 5.87319L36.5468 0.0701294L22.574 5.29935C18.1714 9.39405 9.62886 17.4956 9.32097 17.648C9.01624 17.8036 3.67985 27.8893 1.12207 32.7003Z" fill="white"/>
<mask id="mask8_117_5192" style="mask-type:luminance" maskUnits="userSpaceOnUse" x="2" y="1" width="41" height="41">
<path fill-rule="evenodd" clip-rule="evenodd" d="M14.2128 13.7024C23.7539 4.24253 36.0539 -1.34666 40.7742 3.41574C45.4911 8.1783 40.4888 19.752 30.9478 29.2087C21.4067 38.6654 9.2592 44.5627 4.54207 39.8001C-0.178221 35.041 4.67172 23.1593 14.2128 13.7024Z" fill="white"/>
</mask>
<g mask="url(#mask8_117_5192)">
<path fill-rule="evenodd" clip-rule="evenodd" d="M14.2128 13.7024C23.7539 4.24253 36.0539 -1.34666 40.7742 3.41574C45.4911 8.1783 40.4888 19.752 30.9478 29.2087C21.4067 38.6654 9.2592 44.5627 4.54207 39.8001C-0.178221 35.041 4.67172 23.1593 14.2128 13.7024Z" fill="url(#paint8_linear_117_5192)"/>
</g>
<mask id="mask9_117_5192" style="mask-type:luminance" maskUnits="userSpaceOnUse" x="13" y="39" width="33" height="26">
<path fill-rule="evenodd" clip-rule="evenodd" d="M13.7852 64.0597L21.1962 39.5117L45.809 47.4187C36.9098 55.7636 27.0122 62.818 13.7852 64.0597Z" fill="white"/>
</mask>
<g mask="url(#mask9_117_5192)">
<path fill-rule="evenodd" clip-rule="evenodd" d="M13.7852 64.0597L21.1962 39.5117L45.809 47.4187C36.9098 55.7636 27.0122 62.818 13.7852 64.0597Z" fill="url(#paint9_linear_117_5192)"/>
</g>
<mask id="mask10_117_5192" style="mask-type:luminance" maskUnits="userSpaceOnUse" x="39" y="20" width="25" height="28">
<path fill-rule="evenodd" clip-rule="evenodd" d="M39.5781 22.404L45.8966 47.4317C53.3304 39.6154 60.0024 31.2123 63.2701 20.8186L39.5781 22.404Z" fill="white"/>
</mask>
<g mask="url(#mask10_117_5192)">
<path fill-rule="evenodd" clip-rule="evenodd" d="M39.5781 22.404L45.8966 47.4317C53.3304 39.6154 60.0024 31.2123 63.2701 20.8186L39.5781 22.404Z" fill="url(#paint10_linear_117_5192)"/>
</g>
<mask id="mask11_117_5192" style="mask-type:luminance" maskUnits="userSpaceOnUse" x="44" y="0" width="21" height="21">
<path fill-rule="evenodd" clip-rule="evenodd" d="M63.2053 20.9451C65.734 13.3135 66.3174 2.36547 54.3936 0.332764L44.6094 5.73707L63.2053 20.9451Z" fill="white"/>
</mask>
<g mask="url(#mask11_117_5192)">
<path fill-rule="evenodd" clip-rule="evenodd" d="M63.2053 20.9451C65.734 13.3135 66.3174 2.36547 54.3936 0.332764L44.6094 5.73707L63.2053 20.9451Z" fill="url(#paint11_linear_117_5192)"/>
</g>
<path fill-rule="evenodd" clip-rule="evenodd" d="M0.493164 51.2118C0.843161 63.8068 9.93043 63.9949 13.8013 64.1051L4.85998 43.2236L0.493164 51.2118Z" fill="#9E1209"/>
<mask id="mask12_117_5192" style="mask-type:luminance" maskUnits="userSpaceOnUse" x="39" y="20" width="25" height="14">
<path fill-rule="evenodd" clip-rule="evenodd" d="M39.6138 22.4429C45.326 25.9538 56.8382 33.005 57.0717 33.1348C57.4347 33.339 62.035 25.3768 63.079 20.877L39.6138 22.4429Z" fill="white"/>
</mask>
<g mask="url(#mask12_117_5192)">
<path fill-rule="evenodd" clip-rule="evenodd" d="M39.6138 22.4429C45.326 25.9538 56.8382 33.005 57.0717 33.1348C57.4347 33.339 62.035 25.3768 63.079 20.877L39.6138 22.4429Z" fill="url(#paint12_radial_117_5192)"/>
</g>
<mask id="mask13_117_5192" style="mask-type:luminance" maskUnits="userSpaceOnUse" x="21" y="39" width="25" height="20">
<path fill-rule="evenodd" clip-rule="evenodd" d="M21.1865 39.5117L31.0939 58.6262C36.9522 55.449 41.5396 51.5782 45.7411 47.4317L21.1865 39.5117Z" fill="white"/>
</mask>
<g mask="url(#mask13_117_5192)">
<path fill-rule="evenodd" clip-rule="evenodd" d="M21.1865 39.5117L31.0939 58.6262C36.9522 55.449 41.5396 51.5782 45.7411 47.4317L21.1865 39.5117Z" fill="url(#paint13_radial_117_5192)"/>
</g>
<mask id="mask14_117_5192" style="mask-type:luminance" maskUnits="userSpaceOnUse" x="3" y="43" width="11" height="21">
<path fill-rule="evenodd" clip-rule="evenodd" d="M4.82111 43.2496L3.41748 59.9651C6.06613 63.5832 9.70999 63.8975 13.5323 63.6156C10.767 56.733 5.24266 42.9708 4.82111 43.2496Z" fill="white"/>
</mask>
<g mask="url(#mask14_117_5192)">
<path fill-rule="evenodd" clip-rule="evenodd" d="M4.82111 43.2496L3.41748 59.9651C6.06613 63.5832 9.70999 63.8975 13.5323 63.6156C10.767 56.733 5.24266 42.9708 4.82111 43.2496Z" fill="url(#paint14_linear_117_5192)"/>
</g>
<mask id="mask15_117_5192" style="mask-type:luminance" maskUnits="userSpaceOnUse" x="44" y="0" width="21" height="9">
<path fill-rule="evenodd" clip-rule="evenodd" d="M44.5513 5.77915L64.2331 8.5413C63.1827 4.09011 59.957 1.21779 54.4587 0.319763L44.5513 5.77915Z" fill="white"/>
</mask>
<g mask="url(#mask15_117_5192)">
<path fill-rule="evenodd" clip-rule="evenodd" d="M44.5513 5.77915L64.2331 8.5413C63.1827 4.09011 59.957 1.21779 54.4587 0.319763L44.5513 5.77915Z" fill="url(#paint15_linear_117_5192)"/>
</g>
</g>
<defs>
<linearGradient id="paint0_linear_117_5192" x1="56.9257" y1="69.9487" x2="43.3744" y2="46.0231" gradientUnits="userSpaceOnUse">
<stop stop-color="#FB7655"/>
<stop offset="0.41" stop-color="#E42B1E"/>
<stop offset="0.99001" stop-color="#990000"/>
<stop offset="1" stop-color="#990000"/>
</linearGradient>
<linearGradient id="paint1_linear_117_5192" x1="63.677" y1="49.8522" x2="46.213" y2="38.1328" gradientUnits="userSpaceOnUse">
<stop stop-color="#871101"/>
<stop offset="0.99001" stop-color="#911209"/>
<stop offset="1" stop-color="#911209"/>
</linearGradient>
<linearGradient id="paint2_linear_117_5192" x1="49.7036" y1="70.6743" x2="32.2396" y2="58.9549" gradientUnits="userSpaceOnUse">
<stop stop-color="#871101"/>
<stop offset="0.99001" stop-color="#911209"/>
<stop offset="1" stop-color="#911209"/>
</linearGradient>
<linearGradient id="paint3_linear_117_5192" x1="13.0383" y1="41.3698" x2="15.7456" y2="58.9648" gradientUnits="userSpaceOnUse">
<stop stop-color="white"/>
<stop offset="0.23" stop-color="#E57252"/>
<stop offset="0.46001" stop-color="#DE3B20"/>
<stop offset="0.99001" stop-color="#A60003"/>
<stop offset="1" stop-color="#A60003"/>
</linearGradient>
<linearGradient id="paint4_linear_117_5192" x1="31.6588" y1="24.9394" x2="32.6563" y2="42.8966" gradientUnits="userSpaceOnUse">
<stop stop-color="white"/>
<stop offset="0.23" stop-color="#E4714E"/>
<stop offset="0.56" stop-color="#BE1A0D"/>
<stop offset="0.99001" stop-color="#A80D00"/>
<stop offset="1" stop-color="#A80D00"/>
</linearGradient>
<linearGradient id="paint5_linear_117_5192" x1="48.1835" y1="8.3447" x2="51.1696" y2="21.2136" gradientUnits="userSpaceOnUse">
<stop stop-color="white"/>
<stop offset="0.17999" stop-color="#E46342"/>
<stop offset="0.39999" stop-color="#C82410"/>
<stop offset="0.99001" stop-color="#A80D00"/>
<stop offset="1" stop-color="#A80D00"/>
</linearGradient>
<linearGradient id="paint6_linear_117_5192" x1="39.0647" y1="3.81213" x2="51.9333" y2="-2.62217" gradientUnits="userSpaceOnUse">
<stop stop-color="white"/>
<stop offset="0.53999" stop-color="#C81F11"/>
<stop offset="0.99001" stop-color="#BF0905"/>
<stop offset="1" stop-color="#BF0905"/>
</linearGradient>
<linearGradient id="paint7_linear_117_5192" x1="1.75876" y1="36.8841" x2="2.81791" y2="47.4885" gradientUnits="userSpaceOnUse">
<stop stop-color="white"/>
<stop offset="0.31" stop-color="#DE4024"/>
<stop offset="0.99001" stop-color="#BF190B"/>
<stop offset="1" stop-color="#BF190B"/>
</linearGradient>
<linearGradient id="paint8_linear_117_5192" x1="-5.52427" y1="50.3558" x2="44.2637" y2="-0.840152" gradientUnits="userSpaceOnUse">
<stop stop-color="#BD0012"/>
<stop offset="0.07001" stop-color="white"/>
<stop offset="0.27" stop-color="#C82F1C"/>
<stop offset="0.33" stop-color="#820C01"/>
<stop offset="0.46001" stop-color="#A31601"/>
<stop offset="0.72" stop-color="#B31301"/>
<stop offset="0.99001" stop-color="#E82609"/>
<stop offset="1" stop-color="#E82609"/>
</linearGradient>
<linearGradient id="paint9_linear_117_5192" x1="32.6133" y1="55.5182" x2="17.618" y2="51.8172" gradientUnits="userSpaceOnUse">
<stop stop-color="#8C0C01"/>
<stop offset="0.53999" stop-color="#990C00"/>
<stop offset="0.99001" stop-color="#A80D0E"/>
<stop offset="1" stop-color="#A80D0E"/>
</linearGradient>
<linearGradient id="paint10_linear_117_5192" x1="58.3702" y1="37.5191" x2="45.0478" y2="25.5786" gradientUnits="userSpaceOnUse">
<stop stop-color="#7E110B"/>
<stop offset="0.99001" stop-color="#9E0C00"/>
<stop offset="1" stop-color="#9E0C00"/>
</linearGradient>
<linearGradient id="paint11_linear_117_5192" x1="63.2645" y1="15.6109" x2="56.6282" y2="8.51625" gradientUnits="userSpaceOnUse">
<stop stop-color="#79130D"/>
<stop offset="0.99001" stop-color="#9E120B"/>
<stop offset="1" stop-color="#9E120B"/>
</linearGradient>
<radialGradient id="paint12_radial_117_5192" cx="0" cy="0" r="1" gradientUnits="userSpaceOnUse" gradientTransform="translate(47.122 25.808) scale(16.3265 16.3264)">
<stop stop-color="#A80D00"/>
<stop offset="0.99001" stop-color="#7E0E08"/>
<stop offset="1" stop-color="#7E0E08"/>
</radialGradient>
<radialGradient id="paint13_radial_117_5192" cx="0" cy="0" r="1" gradientUnits="userSpaceOnUse" gradientTransform="translate(24.5128 47.3215) scale(21.7038)">
<stop stop-color="#A30C00"/>
<stop offset="0.99001" stop-color="#800E08"/>
<stop offset="1" stop-color="#800E08"/>
</radialGradient>
<linearGradient id="paint14_linear_117_5192" x1="9.1398" y1="64.0463" x2="3.73156" y2="45.6979" gradientUnits="userSpaceOnUse">
<stop stop-color="#8B2114"/>
<stop offset="0.42999" stop-color="#9E100A"/>
<stop offset="0.99001" stop-color="#B3100C"/>
<stop offset="1" stop-color="#B3100C"/>
</linearGradient>
<linearGradient id="paint15_linear_117_5192" x1="50.6275" y1="3.2467" x2="62.7524" y2="8.59883" gradientUnits="userSpaceOnUse">
<stop stop-color="#B31000"/>
<stop offset="0.44" stop-color="#910F08"/>
<stop offset="0.99001" stop-color="#791C12"/>
<stop offset="1" stop-color="#791C12"/>
</linearGradient>
<clipPath id="clip0_117_5192">
<rect width="64" height="64" fill="white" transform="translate(0.5 0.0686646)"/>
</clipPath>
</defs>
</svg>
